{
	"$schema": "http://schema.management.azure.com/schemas/2019-04-01/deploymentTemplate.json#",
	"contentVersion": "1.0.0.0",
	"parameters": {
		"purpose": {
			"type": "string"
		},
		"env": {
			"type": "string"
		},
		"type": {
			"type": "string"
		},
		"name": {
			"type": "string"
		},
		"location": {
			"type": "string"
		},
		"keyvaultName": {
			"type": "string"
		},
		"accountType": {
			"type": "string"
		},
		"kind": {
			"type": "string"
		},
		"accessTier": {
			"type": "string"
		},
		"supportsHttpsTrafficOnly": {
			"type": "bool"
		},
		"vnetDefaultAction": {
			"type": "string"
		},
		"enableRetention": {
			"type": "bool"
		},
		"retentionDaysCold": {
			"type": "int"
		},
		"retentionDaysDelete": {
			"type": "int"
		}
	},
	"variables": {},
	"resources": [
		{
			"type": "Microsoft.Storage/storageAccounts",
			"sku": {
				"name": "[parameters('accountType')]",
				"tier": "Standard"
			},
			"kind": "[parameters('kind')]",
			"name": "[parameters('name')]",
			"apiVersion": "2019-06-01",
			"location": "[parameters('location')]",
			"properties": {
				"accessTier": "[parameters('accessTier')]",
				"supportsHttpsTrafficOnly": "[parameters('supportsHttpsTrafficOnly')]",
				"networkAcls": {
					"defaultAction": "[parameters('vnetDefaultAction')]",
					"bypass": "AzureServices",
					"ipRules": [
						{
							"value": "141.113.0.0/16",
							"action": "Allow"
						}
					]
				}
			}
		},
		{
			"name": "[concat(parameters('keyVaultName'), '/storagekey', parameters('name'))]",
			"type": "Microsoft.KeyVault/vaults/secrets",
			"apiVersion": "2016-10-01",
			"location": "westeurope",
			"dependsOn": [
				"[parameters('name')]"
			],
			"properties": {
				"value": "[listKeys(parameters('name'), '2019-04-01').keys[0].value]"
			}
		},
		{
			"name": "[concat(parameters('name'), '/default')]",
			"type": "Microsoft.Storage/storageAccounts/managementPolicies",
			"apiVersion": "2019-06-01",
			"dependsOn": [
				"[parameters('name')]"
			],
			"properties": {
				"policy": {
					"rules": [
						{
							"name": "defaultretention",
							"enabled": "[parameters('enableRetention')]",
							"type": "Lifecycle",
							"definition": {
								"actions": {
									"baseBlob": {
										"tierToCool": {
											"daysAfterModificationGreaterThan": "[parameters('retentionDaysCold')]"
										},
										"delete": {
											"daysAfterModificationGreaterThan": "[parameters('retentionDaysDelete')]"
										}
									},
									"snapshot": {
										"delete": {
											"daysAfterCreationGreaterThan": "[parameters('retentionDaysCold')]"
										}
									}
								},
								"filters": {
									"blobTypes": [
										"blockBlob"
									]
								}
							}
						}
					]
				}
			}
		}
	],
	"outputs": {
		"resourceId": {
			"value": "[resourceId('Microsoft.Storage/storageAccounts', parameters('name'))]",
			"type": "string"
		}
	}
}